{
  "R_scripts": {
     "MR_mean_meaneff.R": "/opt/backend/lib/rhipe/MR_mean_meaneff_v2.R",
     "sequence_to_text.R": "/opt/backend/lib/rhipe/sequence_to_text.R",
     "join_and_compare_with_others.R": "/opt/backend/modules/ot101/R/join_and_compare_with_others.R"
  },
  "paths" : {
    "input" : "/tmp/ot101/UUID/input_from_query",
    "means" : "/tmp/ot101/UUID/mean_values",
    "result_dir": "hdfs:///tmp/ot101/UUID/result",     
    "summary_result_dir": "hdfs:///tmp/ot101/UUID/mean_values_text", 
    "all": "/tmp/ot101/UUID"                           
  },
  "public": {
    "mongodb": {
        "collection": "OT101Results",
        "fields": [ "consumption", "averageEffConsumption", "averageConsumption", "diffAverageEffConsumption", "diffAverageConsumption", "numberCustomersEff", "numberCustomers", "criteriaSelected","consumptionNumberOfDays"], 
        "ttl": 24
    }
  },
  "hbase_table":{
    "name": "ot101", "cf": [ {"fields": [ "consumption", "averageEffConsumption", "averageConsumption", "diffAverageEffConsumption", "diffAverageConsumption", "numberCustomersEff", "numberCustomers", "criteriaSelected","consumptionNumberOfDays"], "name": "results"}]
  },
  "hbase_summaryTable":{
    "name": "summaryGroupingCriteria_ot101", "cf": [ {"fields": [ "averageConsumption", "numberCustomers", "averageEffConsumption", "numberCustomersEff"], "name": "results"}]
  }
}
